simulation/modelsim/msim_transcript
# Reading C:/intelFPGA_lite/17.1/modelsim_ase/tcl/vsim/pref.tcl
# Reading C:/Users/James/modelsim.tcl
# do MiniProject_run_msim_rtl_verilog.do
# if {[file exists rtl_work]} {
# 	vdel -lib rtl_work -all
# }
# vlib rtl_work
# vmap work rtl_work
# Model Technology ModelSim - Intel FPGA Edition vmap 10.5b Lib Mapping Utility 2016.10 Oct  5 2016
# vmap work rtl_work 
# Copying C:/intelFPGA_lite/17.1/modelsim_ase/win32aloem/../modelsim.ini to modelsim.ini
# Modifying modelsim.ini
# 
# vlog -vlog01compat -work work +incdir+C:/Users/James/Workspace/ELEC5566M-MiniProject {C:/Users/James/Workspace/ELEC5566M-MiniProject/score_display.v}
# Model Technology ModelSim - Intel FPGA Edition vlog 10.5b Compiler 2016.10 Oct  5 2016
# Start time: 01:20:24 on May 20,2021
# vlog -reportprogress 300 -vlog01compat -work work "+incdir+C:/Users/James/Workspace/ELEC5566M-MiniProject" C:/Users/James/Workspace/ELEC5566M-MiniProject/score_display.v 
# -- Compiling module score_display
# 
# Top level modules:
# 	score_display
# End time: 01:20:24 on May 20,2021, Elapsed time: 0:00:00
# Errors: 0, Warnings: 0
# vlog -vlog01compat -work work +incdir+C:/Users/James/Workspace/ELEC5566M-MiniProject {C:/Users/James/Workspace/ELEC5566M-MiniProject/hex_to_7seg.v}
# Model Technology ModelSim - Intel FPGA Edition vlog 10.5b Compiler 2016.10 Oct  5 2016
# Start time: 01:20:24 on May 20,2021
# vlog -reportprogress 300 -vlog01compat -work work "+incdir+C:/Users/James/Workspace/ELEC5566M-MiniProject" C:/Users/James/Workspace/ELEC5566M-MiniProject/hex_to_7seg.v 
# -- Compiling module hex_to_7seg
# 
# Top level modules:
# 	hex_to_7seg
# End time: 01:20:24 on May 20,2021, Elapsed time: 0:00:00
# Errors: 0, Warnings: 0
# vlog -vlog01compat -work work +incdir+C:/Users/James/Workspace/ELEC5566M-MiniProject {C:/Users/James/Workspace/ELEC5566M-MiniProject/bin_to_BCD.v}
# Model Technology ModelSim - Intel FPGA Edition vlog 10.5b Compiler 2016.10 Oct  5 2016
# Start time: 01:20:24 on May 20,2021
# vlog -reportprogress 300 -vlog01compat -work work "+incdir+C:/Users/James/Workspace/ELEC5566M-MiniProject" C:/Users/James/Workspace/ELEC5566M-MiniProject/bin_to_BCD.v 
# -- Compiling module bin_to_BCD
# 
# Top level modules:
# 	bin_to_BCD
# End time: 01:20:24 on May 20,2021, Elapsed time: 0:00:00
# Errors: 0, Warnings: 0
# 
# vlog -vlog01compat -work work +incdir+C:/Users/James/Workspace/ELEC5566M-MiniProject/testbenches {C:/Users/James/Workspace/ELEC5566M-MiniProject/testbenches/score_display_tb.v}
# Model Technology ModelSim - Intel FPGA Edition vlog 10.5b Compiler 2016.10 Oct  5 2016
# Start time: 01:20:24 on May 20,2021
# vlog -reportprogress 300 -vlog01compat -work work "+incdir+C:/Users/James/Workspace/ELEC5566M-MiniProject/testbenches" C:/Users/James/Workspace/ELEC5566M-MiniProject/testbenches/score_display_tb.v 
# -- Compiling module score_display_tb
# 
# Top level modules:
# 	score_display_tb
# End time: 01:20:24 on May 20,2021, Elapsed time: 0:00:00
# Errors: 0, Warnings: 0
# 
# vsim -t 1ps -L altera_ver -L lpm_ver -L sgate_ver -L altera_mf_ver -L altera_lnsim_ver -L cyclonev_ver -L cyclonev_hssi_ver -L cyclonev_pcie_hip_ver -L rtl_work -L work -voptargs="+acc"  score_display_tb
# vsim -t 1ps -L altera_ver -L lpm_ver -L sgate_ver -L altera_mf_ver -L altera_lnsim_ver -L cyclonev_ver -L cyclonev_hssi_ver -L cyclonev_pcie_hip_ver -L rtl_work -L work -voptargs=""+acc"" score_display_tb 
# Start time: 01:20:25 on May 20,2021
# Loading work.score_display_tb
# Loading work.score_display
# Loading work.bin_to_BCD
# Loading work.hex_to_7seg
# ** Warning: (vsim-3015) C:/Users/James/Workspace/ELEC5566M-MiniProject/score_display.v(39): [PCDPC] - Port size (4) does not match connection size (32) for port 'hex'. The port definition is at: C:/Users/James/Workspace/ELEC5566M-MiniProject/hex_to_7seg.v(17).
#    Time: 0 ps  Iteration: 0  Instance: /score_display_tb/dut/seven_seg_loop[0]/display File: C:/Users/James/Workspace/ELEC5566M-MiniProject/hex_to_7seg.v
# ** Warning: (vsim-3015) C:/Users/James/Workspace/ELEC5566M-MiniProject/score_display.v(39): [PCDPC] - Port size (4) does not match connection size (32) for port 'hex'. The port definition is at: C:/Users/James/Workspace/ELEC5566M-MiniProject/hex_to_7seg.v(17).
#    Time: 0 ps  Iteration: 0  Instance: /score_display_tb/dut/seven_seg_loop[1]/display File: C:/Users/James/Workspace/ELEC5566M-MiniProject/hex_to_7seg.v
# ** Warning: (vsim-3015) C:/Users/James/Workspace/ELEC5566M-MiniProject/score_display.v(39): [PCDPC] - Port size (4) does not match connection size (32) for port 'hex'. The port definition is at: C:/Users/James/Workspace/ELEC5566M-MiniProject/hex_to_7seg.v(17).
#    Time: 0 ps  Iteration: 0  Instance: /score_display_tb/dut/seven_seg_loop[2]/display File: C:/Users/James/Workspace/ELEC5566M-MiniProject/hex_to_7seg.v
# ** Warning: (vsim-3015) C:/Users/James/Workspace/ELEC5566M-MiniProject/score_display.v(39): [PCDPC] - Port size (4) does not match connection size (32) for port 'hex'. The port definition is at: C:/Users/James/Workspace/ELEC5566M-MiniProject/hex_to_7seg.v(17).
#    Time: 0 ps  Iteration: 0  Instance: /score_display_tb/dut/seven_seg_loop[3]/display File: C:/Users/James/Workspace/ELEC5566M-MiniProject/hex_to_7seg.v
# ** Warning: (vsim-3015) C:/Users/James/Workspace/ELEC5566M-MiniProject/score_display.v(39): [PCDPC] - Port size (4) does not match connection size (32) for port 'hex'. The port definition is at: C:/Users/James/Workspace/ELEC5566M-MiniProject/hex_to_7seg.v(17).
#    Time: 0 ps  Iteration: 0  Instance: /score_display_tb/dut/seven_seg_loop[4]/display File: C:/Users/James/Workspace/ELEC5566M-MiniProject/hex_to_7seg.v
# ** Warning: (vsim-3015) C:/Users/James/Workspace/ELEC5566M-MiniProject/score_display.v(39): [PCDPC] - Port size (4) does not match connection size (32) for port 'hex'. The port definition is at: C:/Users/James/Workspace/ELEC5566M-MiniProject/hex_to_7seg.v(17).
#    Time: 0 ps  Iteration: 0  Instance: /score_display_tb/dut/seven_seg_loop[5]/display File: C:/Users/James/Workspace/ELEC5566M-MiniProject/hex_to_7seg.v
# ** Warning: (vsim-3015) C:/Users/James/Workspace/ELEC5566M-MiniProject/score_display.v(46): [PCDPC] - Port size (10) does not match connection size (32) for port 'bin'. The port definition is at: C:/Users/James/Workspace/ELEC5566M-MiniProject/bin_to_BCD.v(3).
#    Time: 0 ps  Iteration: 0  Instance: /score_display_tb/dut/scr File: C:/Users/James/Workspace/ELEC5566M-MiniProject/bin_to_BCD.v
# ** Warning: (vsim-3015) C:/Users/James/Workspace/ELEC5566M-MiniProject/score_display.v(47): [PCDPC] - Port size (10) does not match connection size (32) for port 'bin'. The port definition is at: C:/Users/James/Workspace/ELEC5566M-MiniProject/bin_to_BCD.v(3).
#    Time: 0 ps  Iteration: 0  Instance: /score_display_tb/dut/hiscr File: C:/Users/James/Workspace/ELEC5566M-MiniProject/bin_to_BCD.v
# 
# add wave *
# view structure
# .main_pane.structure.interior.cs.body.struct
# view signals
# .main_pane.objects.interior.cs.body.tree
# run -all
#                    0 ns score =         54 score_BCD = 054 hiscore_BCD = 000 seg = 111111111111111111111111111100100100011001
#                   10 ns score =         76 score_BCD = 076 hiscore_BCD = 076 seg = 111111111111111111111111111101110000000010
#                   30 ns score =          8 score_BCD = 008 hiscore_BCD = 076 seg = 111111111111111111111111111111111110000000
#                   50 ns score =         13 score_BCD = 013 hiscore_BCD = 076 seg = 111111111111111111111111111111110010110000
#                   70 ns score =         62 score_BCD = 062 hiscore_BCD = 076 seg = 111111111111111111111111111100000100100100
#                   90 ns score =         88 score_BCD = 088 hiscore_BCD = 088 seg = 111111111111111111111111111100000000000000
#                  110 ns score =         23 score_BCD = 023 hiscore_BCD = 088 seg = 111111111111111111111111111101001000110000
#                  130 ns score =         39 score_BCD = 039 hiscore_BCD = 088 seg = 111111111111111111111111111101100000010000
#                  150 ns score =         15 score_BCD = 015 hiscore_BCD = 088 seg = 111111111111111111111111111111110010010010
#                  170 ns score =         25 score_BCD = 025 hiscore_BCD = 088 seg = 111111111111111111111111111101001000010010
#                  190 ns score =         44 score_BCD = 044 hiscore_BCD = 088 seg = 111111111111111111111111111100110010011001
#                  210 ns score =          6 score_BCD = 006 hiscore_BCD = 088 seg = 111111111111111111111111111111111110000010
#                  230 ns score =         75 score_BCD = 075 hiscore_BCD = 088 seg = 111111111111111111111111111101110000010010
#                  250 ns score =         76 score_BCD = 076 hiscore_BCD = 088 seg = 111111111111111111111111111101110000000010
#                  270 ns score =         85 score_BCD = 085 hiscore_BCD = 088 seg = 111111111111111111111111111100000000010010
#                  290 ns score =          9 score_BCD = 009 hiscore_BCD = 088 seg = 111111111111111111111111111111111110010000
#                  310 ns score =         74 score_BCD = 074 hiscore_BCD = 088 seg = 111111111111111111111111111101110000011001
#                  330 ns score =         58 score_BCD = 058 hiscore_BCD = 088 seg = 111111111111111111111111111100100100000000
#                  350 ns score =         23 score_BCD = 023 hiscore_BCD = 088 seg = 111111111111111111111111111101001000110000
#                  370 ns score =          3 score_BCD = 003 hiscore_BCD = 088 seg = 111111111111111111111111111111111110110000
#                  390 ns score =         12 score_BCD = 012 hiscore_BCD = 088 seg = 111111111111111111111111111111110010100100
#                  410 ns score =         44 score_BCD = 044 hiscore_BCD = 088 seg = 111111111111111111111111111100110010011001
#                  430 ns score =          5 score_BCD = 005 hiscore_BCD = 088 seg = 111111111111111111111111111111111110010010
#                  450 ns score =         30 score_BCD = 030 hiscore_BCD = 088 seg = 111111111111111111111111111101100001111111
#                  470 ns score =         19 score_BCD = 019 hiscore_BCD = 088 seg = 111111111111111111111111111111110010010000
#                  490 ns score =         90 score_BCD = 090 hiscore_BCD = 090 seg = 111111111111111111111111111100100001111111
#                  510 ns score =         25 score_BCD = 025 hiscore_BCD = 090 seg = 111111111111111111111111111101001000010010
#                  530 ns score =         49 score_BCD = 049 hiscore_BCD = 090 seg = 111111111111111111111111111100110010010000
#                  550 ns score =          0 score_BCD = 000 hiscore_BCD = 090 seg = 111111111111111111111111111111111111111111
#                  570 ns score =         87 score_BCD = 087 hiscore_BCD = 090 seg = 111111111111111111111111111100000000111000
#                  590 ns score =         46 score_BCD = 046 hiscore_BCD = 090 seg = 111111111111111111111111111100110010000010
#                  610 ns score =         41 score_BCD = 041 hiscore_BCD = 090 seg = 111111111111111111111111111100110011111001
#                  630 ns score =         86 score_BCD = 086 hiscore_BCD = 090 seg = 111111111111111111111111111100000000000010
#                  650 ns score =         90 score_BCD = 090 hiscore_BCD = 090 seg = 111111111111111111111111111100100001111111
#                  670 ns score =         77 score_BCD = 077 hiscore_BCD = 090 seg = 111111111111111111111111111101110000111000
#                  690 ns score =         70 score_BCD = 070 hiscore_BCD = 090 seg = 111111111111111111111111111101110001111111
#                  710 ns score =         88 score_BCD = 088 hiscore_BCD = 090 seg = 111111111111111111111111111100000000000000
#                  750 ns score =          9 score_BCD = 009 hiscore_BCD = 090 seg = 111111111111111111111111111111111110010000
#                  770 ns score =         19 score_BCD = 019 hiscore_BCD = 090 seg = 111111111111111111111111111111110010010000
#                  790 ns score =         49 score_BCD = 049 hiscore_BCD = 090 seg = 111111111111111111111111111100110010010000
#                  810 ns score =         46 score_BCD = 046 hiscore_BCD = 090 seg = 111111111111111111111111111100110010000010
#                  830 ns score =         93 score_BCD = 093 hiscore_BCD = 093 seg = 111111111111111111111111111100100000110000
#                  850 ns score =         36 score_BCD = 036 hiscore_BCD = 093 seg = 111111111111111111111111111101100000000010
#                  870 ns score =         21 score_BCD = 021 hiscore_BCD = 093 seg = 111111111111111111111111111101001001111001
#                  890 ns score =         80 score_BCD = 080 hiscore_BCD = 093 seg = 111111111111111111111111111100000001111111
#                  910 ns score =         39 score_BCD = 039 hiscore_BCD = 093 seg = 111111111111111111111111111101100000010000
#                  930 ns score =         12 score_BCD = 012 hiscore_BCD = 093 seg = 111111111111111111111111111111110010100100
#                  950 ns score =         16 score_BCD = 016 hiscore_BCD = 093 seg = 111111111111111111111111111111110010000010
#                  970 ns score =         68 score_BCD = 068 hiscore_BCD = 093 seg = 111111111111111111111111111100000100000000
#                  990 ns score =         16 score_BCD = 016 hiscore_BCD = 093 seg = 111111111111111111111111111111110010000010
#                 1010 ns score =         29 score_BCD = 029 hiscore_BCD = 093 seg = 111111111111111111111111111101001000010000
#                 1030 ns score =          5 score_BCD = 005 hiscore_BCD = 093 seg = 111111111111111111111111111111111110010010
#                 1050 ns score =         45 score_BCD = 045 hiscore_BCD = 093 seg = 111111111111111111111111111100110010010010
#                 1070 ns score =         34 score_BCD = 034 hiscore_BCD = 093 seg = 111111111111111111111111111101100000011001
#                 1090 ns score =         65 score_BCD = 065 hiscore_BCD = 093 seg = 111111111111111111111111111100000100010010
#                 1110 ns score =         50 score_BCD = 050 hiscore_BCD = 093 seg = 111111111111111111111111111100100101111111
#                 1130 ns score =         11 score_BCD = 011 hiscore_BCD = 093 seg = 111111111111111111111111111111110011111001
#                 1150 ns score =         25 score_BCD = 025 hiscore_BCD = 093 seg = 111111111111111111111111111101001000010010
#                 1170 ns score =          6 score_BCD = 006 hiscore_BCD = 093 seg = 111111111111111111111111111111111110000010
#                 1190 ns score =         41 score_BCD = 041 hiscore_BCD = 093 seg = 111111111111111111111111111100110011111001
#                 1210 ns score =         86 score_BCD = 086 hiscore_BCD = 093 seg = 111111111111111111111111111100000000000010
#                 1230 ns score =         64 score_BCD = 064 hiscore_BCD = 093 seg = 111111111111111111111111111100000100011001
#                 1250 ns score =         47 score_BCD = 047 hiscore_BCD = 093 seg = 111111111111111111111111111100110010111000
#                 1270 ns score =         91 score_BCD = 091 hiscore_BCD = 093 seg = 111111111111111111111111111100100001111001
#                 1290 ns score =         55 score_BCD = 055 hiscore_BCD = 093 seg = 111111111111111111111111111100100100010010
#                 1310 ns score =         57 score_BCD = 057 hiscore_BCD = 093 seg = 111111111111111111111111111100100100111000
#                 1330 ns score =         32 score_BCD = 032 hiscore_BCD = 093 seg = 111111111111111111111111111101100000100100
#                 1350 ns score =         25 score_BCD = 025 hiscore_BCD = 093 seg = 111111111111111111111111111101001000010010
#                 1370 ns score =         19 score_BCD = 019 hiscore_BCD = 093 seg = 111111111111111111111111111111110010010000
#                 1390 ns score =         24 score_BCD = 024 hiscore_BCD = 093 seg = 111111111111111111111111111101001000011001
#                 1410 ns score =         92 score_BCD = 092 hiscore_BCD = 093 seg = 111111111111111111111111111100100000100100
#                 1430 ns score =         80 score_BCD = 080 hiscore_BCD = 093 seg = 111111111111111111111111111100000001111111
#                 1450 ns score =         60 score_BCD = 060 hiscore_BCD = 093 seg = 111111111111111111111111111100000101111111
#                 1470 ns score =         96 score_BCD = 096 hiscore_BCD = 096 seg = 111111111111111111111111111100100000000010
#                 1490 ns score =          9 score_BCD = 009 hiscore_BCD = 096 seg = 111111111111111111111111111111111110010000
#                 1510 ns score =         55 score_BCD = 055 hiscore_BCD = 096 seg = 111111111111111111111111111100100100010010
#                 1530 ns score =         58 score_BCD = 058 hiscore_BCD = 096 seg = 111111111111111111111111111100100100000000
#                 1550 ns score =         60 score_BCD = 060 hiscore_BCD = 096 seg = 111111111111111111111111111100000101111111
#                 1570 ns score =         67 score_BCD = 067 hiscore_BCD = 096 seg = 111111111111111111111111111100000100111000
#                 1590 ns score =         31 score_BCD = 031 hiscore_BCD = 096 seg = 111111111111111111111111111101100001111001
#                 1610 ns score =         78 score_BCD = 078 hiscore_BCD = 096 seg = 111111111111111111111111111101110000000000
#                 1630 ns score =         93 score_BCD = 093 hiscore_BCD = 096 seg = 111111111111111111111111111100100000110000
#                 1650 ns score =         52 score_BCD = 052 hiscore_BCD = 096 seg = 111111111111111111111111111100100100100100
#                 1670 ns score =         28 score_BCD = 028 hiscore_BCD = 096 seg = 111111111111111111111111111101001000000000
#                 1690 ns score =          1 score_BCD = 001 hiscore_BCD = 096 seg = 111111111111111111111111111111111111111001
#                 1710 ns score =         74 score_BCD = 074 hiscore_BCD = 096 seg = 111111111111111111111111111101110000011001
#                 1730 ns score =          6 score_BCD = 006 hiscore_BCD = 096 seg = 111111111111111111111111111111111110000010
#                 1750 ns score =          5 score_BCD = 005 hiscore_BCD = 096 seg = 111111111111111111111111111111111110010010
#                 1770 ns score =         51 score_BCD = 051 hiscore_BCD = 096 seg = 111111111111111111111111111100100101111001
#                 1790 ns score =         78 score_BCD = 078 hiscore_BCD = 096 seg = 111111111111111111111111111101110000000000
#                 1810 ns score =         69 score_BCD = 069 hiscore_BCD = 096 seg = 111111111111111111111111111100000100010000
#                 1830 ns score =         76 score_BCD = 076 hiscore_BCD = 096 seg = 111111111111111111111111111101110000000010
#                 1850 ns score =         91 score_BCD = 091 hiscore_BCD = 096 seg = 111111111111111111111111111100100001111001
#                 1870 ns score =         84 score_BCD = 084 hiscore_BCD = 096 seg = 111111111111111111111111111100000000011001
#                 1890 ns score =         50 score_BCD = 050 hiscore_BCD = 096 seg = 111111111111111111111111111100100101111111
#                 1910 ns score =         26 score_BCD = 026 hiscore_BCD = 096 seg = 111111111111111111111111111101001000000010
#                 1930 ns score =         63 score_BCD = 063 hiscore_BCD = 096 seg = 111111111111111111111111111100000100110000
#                 1950 ns score =         49 score_BCD = 049 hiscore_BCD = 096 seg = 111111111111111111111111111100110010010000
#                 1970 ns score =         28 score_BCD = 028 hiscore_BCD = 096 seg = 111111111111111111111111111101001000000000
# ** Note: $stop    : C:/Users/James/Workspace/ELEC5566M-MiniProject/testbenches/score_display_tb.v(46)
#    Time: 1990 ns  Iteration: 1  Instance: /score_display_tb
# Break in Module score_display_tb at C:/Users/James/Workspace/ELEC5566M-MiniProject/testbenches/score_display_tb.v line 46
# altEditor error: couldn't execute "C:\Program Files (x86)\Notepad++\notepad++.exe": no such file or directory
# End time: 01:20:36 on May 20,2021, Elapsed time: 0:00:11
# Errors: 1, Warnings: 8
